{
  "name": "DC-test-events",
  "baseUrl": "http://events.dixonscarphonetest.com",
  "description": "An API to inform Events system about new releases",
  "operations": {
    "Send": {
      "httpMethod": "POST",
      "uri": "/api/events/create",
      "summary": "Creates new event in the Event system",
      "responseModel": "EventsResponse",
      "parameters": {
        "event": {
          "location": "json",
          "type": "object",
          "required": true,
          "properties": {
            "id": {
              "location": "json",
              "type": "string",
              "required": true
            },
            "type": {
              "location": "json",
              "type": "integer",
              "required": true
            },
            "timestamp": {
              "location": "json",
              "type": "string",
              "required": true
            }
          }
        }
      }
    }
  },
  "models": {
    "BaseResponse": {
      "type": "object",
      "properties": {
        "success": {
          "type": "boolean",
          "required": true
        },
        "errors": {
          "type": "object",
          "properties": {
            "code": {
              "type": "string",
              "description": "The error code."
            },
            "message": {
              "type": "string",
              "description": "The detailed message from the server."
            }
          }
        }
      },
      "additionalProperties": {
        "location": "json"
      }
    },
    "EventsResponse": {
      "type": "object",
      "extends" : "BaseResponse",
      "properties": {
        "payload": {
          "location": "json",
          "type": "object",
          "required": true,
          "properties": {
            "event": {
              "location": "json",
              "type": "object",
              "required": true,
              "properties": {
                "id": {
                  "location": "json",
                  "type": "string",
                  "required": true
                },
                "type": {
                  "location": "json",
                  "type": "integer",
                  "required": true
                },
                "timestamp": {
                  "location": "json",
                  "type": "string",
                  "required": true
                }
              }
            }
          }
        }
      }
    }
  }
}